Mar 03, 2020 10:36:35 AM com.digitallschool.training.spiders.candidate.CandidateController getCandidate
INFO: i am mohamed in controller candidate
Mar 03, 2020 10:36:35 AM com.digitallschool.training.spiders.candidate.CandidateService findCandidate
INFO: i am mohamed in service
Mar 03, 2020 10:36:35 AM com.digitallschool.training.spiders.candidate.CandidateRepository getCandidateForInterview
INFO: this is repo
Mar 03, 2020 10:36:59 AM com.digitallschool.training.spiders.candidate.CandidateController getCandidate
INFO: i am mohamed in controller candidate
Mar 03, 2020 10:36:59 AM com.digitallschool.training.spiders.candidate.CandidateService findCandidate
INFO: i am mohamed in service
Mar 03, 2020 10:36:59 AM com.digitallschool.training.spiders.candidate.CandidateRepository getCandidateForInterview
INFO: this is repo
Mar 03, 2020 11:00:55 AM com.digitallschool.training.spiders.candidate.CandidateController viewCandidate
INFO: view in candidate
Mar 03, 2020 11:02:52 AM com.digitallschool.training.spiders.candidate.CandidateController viewCandidate
INFO: view in candidate
Mar 03, 2020 11:07:05 AM com.digitallschool.training.spiders.candidate.CandidateController getCandidate
INFO: i am mohamed in controller candidate
Mar 03, 2020 11:07:05 AM com.digitallschool.training.spiders.candidate.CandidateService findCandidate
INFO: i am mohamed in service
Mar 03, 2020 11:07:05 AM com.digitallschool.training.spiders.candidate.CandidateRepository getCandidateForInterview
INFO: this is repo
Mar 03, 2020 3:41:59 PM com.digitallschool.training.spiders.candidate.CandidateController viewCandidate
INFO: view in candidate
Mar 03, 2020 3:43:23 PM com.digitallschool.training.spiders.candidate.CandidateController viewCandidate
INFO: view in candidate
Mar 03, 2020 3:43:26 PM com.digitallschool.training.spiders.candidate.CandidateController viewCandidate
INFO: view in candidate
Mar 03, 2020 3:43:30 PM com.digitallschool.training.spiders.candidate.CandidateController viewCandidate
INFO: view in candidate
Mar 03, 2020 3:43:30 PM com.digitallschool.training.spiders.candidate.CandidateController viewCandidate
INFO: view in candidate
Mar 03, 2020 3:44:11 PM com.digitallschool.training.spiders.candidate.CandidateController viewCandidate
INFO: view in candidate
Mar 03, 2020 3:44:37 PM com.digitallschool.training.spiders.candidate.CandidateController viewCandidate
INFO: view in candidate
Mar 03, 2020 3:46:16 PM com.digitallschool.training.spiders.candidate.CandidateController viewCandidate
INFO: view in candidate
Mar 03, 2020 3:46:19 PM com.digitallschool.training.spiders.candidate.CandidateController viewCandidate
INFO: view in candidate
